Parse Addresses — gc_address • geocoder
…
data(nc_addr)
gc_address(nc_addr, address = address, city = city, zip = zip, county = county, state = "NC")
#> # A tibble: 1,000 × 11
#>    state_c…¹ count…² zip_c…³   num num_s…⁴ stree…⁵ stree…⁶ stree…⁷ stree…⁸ unit 
#>    <chr>     <chr>   <chr>   <int> <chr>   <chr>   <chr>   <chr>   <chr>   <chr>
#>  1 37        055     27948     505 NA      NA      BURNS   DR      NA      NA   
#>  2 37        055     27954     144 NA      NA      PAYNE   RD      NA      NA   
#>  3 37        055     27948     116 NA      NA      MYBET   CT      NA      NA   
#>  4 37        055     27949    4516 NA      NA      MARITY… LN      NA      NA   
#>  5 37        055     27959    2236 NA      S       CROATAN HWY     NA      NA   
#>  6 37        055     NA         NA NA      NA      NA      NA      NA      NA   
#>  7 37        055     27954     129 NA      NA      FIRST … CT      NA      NA   
#>  8 37        055     NA         NA NA      NA      NA      NA      NA      NA   
#>  9 37        055     27949    3634 NA      N       VA DARE TRL     NA      NA   
#> 10 37        055     27948    1911 NA      NA      HARBOU… DR      NA      NA   
#> # … with 990 more rows, 1 more variable: city <chr>, and abbreviated variable
#> #   names ¹​state_code, ²​county_code, ³​zip_code, ⁴​num_suff, ⁵​street_dir_pre,
#> #   ⁶​street_name, ⁷​street_type, ⁸​street_dir_suff
…
